projetos/proj3_phi_equipe0/simulation/qsim/proj3_phi_equipe0.msim.vcd
$comment
	File created using the following command:
		vcd file proj3_phi_equipe0.msim.vcd -direction
$end
$date
	Sat Oct 29 17:58:03 2022
$end
$version
	ModelSim Version 10.5b
$end
$timescale
	1ps
$end

$scope module maquina_de_vendas_vhd_vec_tst $end
$var wire 1 ! B1 $end
$var wire 1 " B2 $end
$var wire 1 # Clk $end
$var wire 1 $ F1 $end
$var wire 1 % F2 $end
$var wire 1 & M $end
$var wire 1 ' NT $end
$var wire 1 ( R1 [7] $end
$var wire 1 ) R1 [6] $end
$var wire 1 * R1 [5] $end
$var wire 1 + R1 [4] $end
$var wire 1 , R1 [3] $end
$var wire 1 - R1 [2] $end
$var wire 1 . R1 [1] $end
$var wire 1 / R1 [0] $end
$var wire 1 0 R2 [7] $end
$var wire 1 1 R2 [6] $end
$var wire 1 2 R2 [5] $end
$var wire 1 3 R2 [4] $end
$var wire 1 4 R2 [3] $end
$var wire 1 5 R2 [2] $end
$var wire 1 6 R2 [1] $end
$var wire 1 7 R2 [0] $end
$var wire 1 8 V [7] $end
$var wire 1 9 V [6] $end
$var wire 1 : V [5] $end
$var wire 1 ; V [4] $end
$var wire 1 < V [3] $end
$var wire 1 = V [2] $end
$var wire 1 > V [1] $end
$var wire 1 ? V [0] $end
$var wire 1 @ VT [7] $end
$var wire 1 A VT [6] $end
$var wire 1 B VT [5] $end
$var wire 1 C VT [4] $end
$var wire 1 D VT [3] $end
$var wire 1 E VT [2] $end
$var wire 1 F VT [1] $end
$var wire 1 G VT [0] $end

$scope module i1 $end
$var wire 1 H gnd $end
$var wire 1 I vcc $end
$var wire 1 J unknown $end
$var wire 1 K devoe $end
$var wire 1 L devclrn $end
$var wire 1 M devpor $end
$var wire 1 N ww_devoe $end
$var wire 1 O ww_devclrn $end
$var wire 1 P ww_devpor $end
$var wire 1 Q ww_Clk $end
$var wire 1 R ww_M $end
$var wire 1 S ww_B1 $end
$var wire 1 T ww_B2 $end
$var wire 1 U ww_V [7] $end
$var wire 1 V ww_V [6] $end
$var wire 1 W ww_V [5] $end
$var wire 1 X ww_V [4] $end
$var wire 1 Y ww_V [3] $end
$var wire 1 Z ww_V [2] $end
$var wire 1 [ ww_V [1] $end
$var wire 1 \ ww_V [0] $end
$var wire 1 ] ww_R1 [7] $end
$var wire 1 ^ ww_R1 [6] $end
$var wire 1 _ ww_R1 [5] $end
$var wire 1 ` ww_R1 [4] $end
$var wire 1 a ww_R1 [3] $end
$var wire 1 b ww_R1 [2] $end
$var wire 1 c ww_R1 [1] $end
$var wire 1 d ww_R1 [0] $end
$var wire 1 e ww_R2 [7] $end
$var wire 1 f ww_R2 [6] $end
$var wire 1 g ww_R2 [5] $end
$var wire 1 h ww_R2 [4] $end
$var wire 1 i ww_R2 [3] $end
$var wire 1 j ww_R2 [2] $end
$var wire 1 k ww_R2 [1] $end
$var wire 1 l ww_R2 [0] $end
$var wire 1 m ww_F1 $end
$var wire 1 n ww_F2 $end
$var wire 1 o ww_NT $end
$var wire 1 p ww_VT [7] $end
$var wire 1 q ww_VT [6] $end
$var wire 1 r ww_VT [5] $end
$var wire 1 s ww_VT [4] $end
$var wire 1 t ww_VT [3] $end
$var wire 1 u ww_VT [2] $end
$var wire 1 v ww_VT [1] $end
$var wire 1 w ww_VT [0] $end
$var wire 1 x \~QUARTUS_CREATED_GND~I_combout\ $end
$var wire 1 y \Clk~input_o\ $end
$var wire 1 z \Clk~inputCLKENA0_outclk\ $end
$var wire 1 { \B1~input_o\ $end
$var wire 1 | \R1[0]~input_o\ $end
$var wire 1 } \B2~input_o\ $end
$var wire 1 ~ \V[0]~input_o\ $end
$var wire 1 !! \inst_BO|Add0~1_sumout\ $end
$var wire 1 "! \R1[3]~input_o\ $end
$var wire 1 #! \V[3]~input_o\ $end
$var wire 1 $! \V[2]~input_o\ $end
$var wire 1 %! \V[1]~input_o\ $end
$var wire 1 &! \inst_BO|Add0~2\ $end
$var wire 1 '! \inst_BO|Add0~5_sumout\ $end
$var wire 1 (! \inst_BO|Add0~6\ $end
$var wire 1 )! \inst_BO|Add0~9_sumout\ $end
$var wire 1 *! \inst_BO|Add0~10\ $end
$var wire 1 +! \inst_BO|Add0~13_sumout\ $end
$var wire 1 ,! \R2[3]~input_o\ $end
$var wire 1 -! \R1[2]~input_o\ $end
$var wire 1 .! \R2[2]~input_o\ $end
$var wire 1 /! \R1[1]~input_o\ $end
$var wire 1 0! \R2[1]~input_o\ $end
$var wire 1 1! \R2[0]~input_o\ $end
$var wire 1 2! \inst_BO|Add1~34_cout\ $end
$var wire 1 3! \inst_BO|Add1~2\ $end
$var wire 1 4! \inst_BO|Add1~6\ $end
$var wire 1 5! \inst_BO|Add1~10\ $end
$var wire 1 6! \inst_BO|Add1~13_sumout\ $end
$var wire 1 7! \inst_BO|Add1~9_sumout\ $end
$var wire 1 8! \M~input_o\ $end
$var wire 1 9! \R2[5]~input_o\ $end
$var wire 1 :! \R1[5]~input_o\ $end
$var wire 1 ;! \inst_BO|r[5]~4_combout\ $end
$var wire 1 <! \V[5]~input_o\ $end
$var wire 1 =! \V[4]~input_o\ $end
$var wire 1 >! \inst_BO|Add0~14\ $end
$var wire 1 ?! \inst_BO|Add0~29_sumout\ $end
$var wire 1 @! \inst_BO|Add0~30\ $end
$var wire 1 A! \inst_BO|Add0~25_sumout\ $end
$var wire 1 B! \R1[7]~input_o\ $end
$var wire 1 C! \R2[7]~input_o\ $end
$var wire 1 D! \inst_BO|r[7]~2_combout\ $end
$var wire 1 E! \V[6]~input_o\ $end
$var wire 1 F! \inst_BO|Add0~26\ $end
$var wire 1 G! \inst_BO|Add0~17_sumout\ $end
$var wire 1 H! \R1[6]~input_o\ $end
$var wire 1 I! \R2[6]~input_o\ $end
$var wire 1 J! \inst_BO|r[6]~3_combout\ $end
$var wire 1 K! \V[7]~input_o\ $end
$var wire 1 L! \inst_BO|Add0~18\ $end
$var wire 1 M! \inst_BO|Add0~21_sumout\ $end
$var wire 1 N! \inst_BO|LessThan0~9_combout\ $end
$var wire 1 O! \R2[4]~input_o\ $end
$var wire 1 P! \R1[4]~input_o\ $end
$var wire 1 Q! \inst_BO|LessThan0~10_combout\ $end
$var wire 1 R! \inst_BO|LessThan0~11_combout\ $end
$var wire 1 S! \inst_BO|LessThan0~12_combout\ $end
$var wire 1 T! \inst_BO|LessThan0~2_combout\ $end
$var wire 1 U! \inst_BO|sel_produto~0_combout\ $end
$var wire 1 V! \inst_BO|LessThan0~1_combout\ $end
$var wire 1 W! \inst_BO|r[3]~0_combout\ $end
$var wire 1 X! \inst_BO|r[2]~1_combout\ $end
$var wire 1 Y! \inst_BO|LessThan0~3_combout\ $end
$var wire 1 Z! \inst_BO|LessThan0~4_combout\ $end
$var wire 1 [! \inst_BO|LessThan0~0_combout\ $end
$var wire 1 \! \inst_BO|LessThan0~5_combout\ $end
$var wire 1 ]! \inst_BO|LessThan0~6_combout\ $end
$var wire 1 ^! \inst_BO|LessThan0~7_combout\ $end
$var wire 1 _! \inst_BO|LessThan0~8_combout\ $end
$var wire 1 `! \inst_BC|prox_estado.Soma1~0_combout\ $end
$var wire 1 a! \inst_BC|estado_atual.Soma1~q\ $end
$var wire 1 b! \inst_BC|estado_atual.Libera_prod1~DUPLICATE_q\ $end
$var wire 1 c! \inst_BO|Add1~5_sumout\ $end
$var wire 1 d! \inst_BC|estado_atual.Libera_troco2~DUPLICATE_q\ $end
$var wire 1 e! \inst_BC|prox_estado.Soma2~0_combout\ $end
$var wire 1 f! \inst_BC|estado_atual.Soma2~q\ $end
$var wire 1 g! \inst_BC|Selector3~0_combout\ $end
$var wire 1 h! \inst_BC|Selector3~1_combout\ $end
$var wire 1 i! \inst_BC|estado_atual.Espera2~q\ $end
$var wire 1 j! \inst_BC|prox_estado.Cal_troco2~0_combout\ $end
$var wire 1 k! \inst_BC|estado_atual.Cal_troco2~q\ $end
$var wire 1 l! \inst_BC|Selector4~0_combout\ $end
$var wire 1 m! \inst_BC|estado_atual.Libera_prod2~q\ $end
$var wire 1 n! \inst_BC|Selector0~0_combout\ $end
$var wire 1 o! \inst_BC|estado_atual.Inicial~q\ $end
$var wire 1 p! \inst_BC|Selector1~0_combout\ $end
$var wire 1 q! \inst_BC|Selector1~1_combout\ $end
$var wire 1 r! \inst_BC|estado_atual.Espera1~q\ $end
$var wire 1 s! \inst_BC|prox_estado.Cal_troco1~0_combout\ $end
$var wire 1 t! \inst_BC|estado_atual.Cal_troco1~q\ $end
$var wire 1 u! \inst_BC|prox_estado.Libera_troco1~0_combout\ $end
$var wire 1 v! \inst_BC|estado_atual.Libera_troco1~q\ $end
$var wire 1 w! \inst_BC|WideOr6~combout\ $end
$var wire 1 x! \inst_BC|prox_estado.Libera_troco2~0_combout\ $end
$var wire 1 y! \inst_BC|estado_atual.Libera_troco2~q\ $end
$var wire 1 z! \inst_BC|WideOr5~combout\ $end
$var wire 1 {! \inst_BO|Add1~1_sumout\ $end
$var wire 1 |! \inst_BO|Add1~14\ $end
$var wire 1 }! \inst_BO|Add1~18\ $end
$var wire 1 ~! \inst_BO|Add1~22\ $end
$var wire 1 !" \inst_BO|Add1~26\ $end
$var wire 1 "" \inst_BO|Add1~29_sumout\ $end
$var wire 1 #" \inst_BO|Add1~17_sumout\ $end
$var wire 1 $" \inst_BO|Add1~25_sumout\ $end
$var wire 1 %" \inst_BO|Add1~21_sumout\ $end
$var wire 1 &" \inst_BO|LessThan1~0_combout\ $end
$var wire 1 '" \inst_BC|Selector2~0_combout\ $end
$var wire 1 (" \inst_BC|estado_atual.Libera_prod1~q\ $end
$var wire 1 )" \inst_BC|WideOr6~0_combout\ $end
$var wire 1 *" \inst_BO|val_vt\ [7] $end
$var wire 1 +" \inst_BO|val_vt\ [6] $end
$var wire 1 ," \inst_BO|val_vt\ [5] $end
$var wire 1 -" \inst_BO|val_vt\ [4] $end
$var wire 1 ." \inst_BO|val_vt\ [3] $end
$var wire 1 /" \inst_BO|val_vt\ [2] $end
$var wire 1 0" \inst_BO|val_vt\ [1] $end
$var wire 1 1" \inst_BO|val_vt\ [0] $end
$var wire 1 2" \inst_BO|val_tot\ [7] $end
$var wire 1 3" \inst_BO|val_tot\ [6] $end
$var wire 1 4" \inst_BO|val_tot\ [5] $end
$var wire 1 5" \inst_BO|val_tot\ [4] $end
$var wire 1 6" \inst_BO|val_tot\ [3] $end
$var wire 1 7" \inst_BO|val_tot\ [2] $end
$var wire 1 8" \inst_BO|val_tot\ [1] $end
$var wire 1 9" \inst_BO|val_tot\ [0] $end
$var wire 1 :" \ALT_INV_V[1]~input_o\ $end
$var wire 1 ;" \ALT_INV_V[0]~input_o\ $end
$var wire 1 <" \ALT_INV_R2[4]~input_o\ $end
$var wire 1 =" \ALT_INV_R1[4]~input_o\ $end
$var wire 1 >" \ALT_INV_R2[5]~input_o\ $end
$var wire 1 ?" \ALT_INV_R1[5]~input_o\ $end
$var wire 1 @" \ALT_INV_R2[6]~input_o\ $end
$var wire 1 A" \ALT_INV_R1[6]~input_o\ $end
$var wire 1 B" \ALT_INV_R2[7]~input_o\ $end
$var wire 1 C" \ALT_INV_R1[7]~input_o\ $end
$var wire 1 D" \ALT_INV_R2[2]~input_o\ $end
$var wire 1 E" \ALT_INV_R1[2]~input_o\ $end
$var wire 1 F" \ALT_INV_R2[3]~input_o\ $end
$var wire 1 G" \ALT_INV_R1[3]~input_o\ $end
$var wire 1 H" \ALT_INV_R1[1]~input_o\ $end
$var wire 1 I" \ALT_INV_R1[0]~input_o\ $end
$var wire 1 J" \ALT_INV_R2[1]~input_o\ $end
$var wire 1 K" \ALT_INV_R2[0]~input_o\ $end
$var wire 1 L" \ALT_INV_B2~input_o\ $end
$var wire 1 M" \ALT_INV_B1~input_o\ $end
$var wire 1 N" \ALT_INV_M~input_o\ $end
$var wire 1 O" \inst_BC|ALT_INV_Selector3~0_combout\ $end
$var wire 1 P" \inst_BC|ALT_INV_estado_atual.Soma2~q\ $end
$var wire 1 Q" \inst_BC|ALT_INV_Selector1~0_combout\ $end
$var wire 1 R" \inst_BC|ALT_INV_estado_atual.Soma1~q\ $end
$var wire 1 S" \inst_BC|ALT_INV_WideOr5~combout\ $end
$var wire 1 T" \inst_BC|ALT_INV_estado_atual.Inicial~q\ $end
$var wire 1 U" \inst_BC|ALT_INV_estado_atual.Espera2~q\ $end
$var wire 1 V" \inst_BC|ALT_INV_estado_atual.Espera1~q\ $end
$var wire 1 W" \inst_BO|ALT_INV_LessThan0~12_combout\ $end
$var wire 1 X" \inst_BO|ALT_INV_LessThan0~11_combout\ $end
$var wire 1 Y" \inst_BO|ALT_INV_LessThan0~10_combout\ $end
$var wire 1 Z" \inst_BO|ALT_INV_LessThan0~9_combout\ $end
$var wire 1 [" \inst_BO|ALT_INV_r[5]~4_combout\ $end
$var wire 1 \" \inst_BO|ALT_INV_LessThan0~8_combout\ $end
$var wire 1 ]" \inst_BO|ALT_INV_LessThan0~7_combout\ $end
$var wire 1 ^" \inst_BO|ALT_INV_val_tot\ [7] $end
$var wire 1 _" \inst_BO|ALT_INV_val_tot\ [6] $end
$var wire 1 `" \inst_BO|ALT_INV_val_tot\ [5] $end
$var wire 1 a" \inst_BO|ALT_INV_val_tot\ [4] $end
$var wire 1 b" \inst_BO|ALT_INV_val_tot\ [3] $end
$var wire 1 c" \inst_BO|ALT_INV_val_tot\ [2] $end
$var wire 1 d" \inst_BO|ALT_INV_val_tot\ [1] $end
$var wire 1 e" \inst_BO|ALT_INV_val_tot\ [0] $end
$var wire 1 f" \inst_BO|ALT_INV_LessThan0~6_combout\ $end
$var wire 1 g" \inst_BO|ALT_INV_r[6]~3_combout\ $end
$var wire 1 h" \inst_BO|ALT_INV_r[7]~2_combout\ $end
$var wire 1 i" \inst_BO|ALT_INV_LessThan0~5_combout\ $end
$var wire 1 j" \inst_BO|ALT_INV_LessThan0~4_combout\ $end
$var wire 1 k" \inst_BO|ALT_INV_LessThan0~3_combout\ $end
$var wire 1 l" \inst_BO|ALT_INV_r[2]~1_combout\ $end
$var wire 1 m" \inst_BO|ALT_INV_r[3]~0_combout\ $end
$var wire 1 n" \inst_BO|ALT_INV_LessThan0~2_combout\ $end
$var wire 1 o" \inst_BO|ALT_INV_LessThan0~1_combout\ $end
$var wire 1 p" \inst_BO|ALT_INV_LessThan0~0_combout\ $end
$var wire 1 q" \inst_BO|ALT_INV_sel_produto~0_combout\ $end
$var wire 1 r" \inst_BC|ALT_INV_WideOr6~combout\ $end
$var wire 1 s" \inst_BC|ALT_INV_estado_atual.Cal_troco2~q\ $end
$var wire 1 t" \inst_BO|ALT_INV_LessThan1~0_combout\ $end
$var wire 1 u" \inst_BC|ALT_INV_estado_atual.Cal_troco1~q\ $end
$var wire 1 v" \inst_BO|ALT_INV_val_vt\ [7] $end
$var wire 1 w" \inst_BO|ALT_INV_val_vt\ [6] $end
$var wire 1 x" \inst_BO|ALT_INV_val_vt\ [5] $end
$var wire 1 y" \inst_BO|ALT_INV_val_vt\ [4] $end
$var wire 1 z" \inst_BO|ALT_INV_val_vt\ [3] $end
$var wire 1 {" \inst_BO|ALT_INV_val_vt\ [2] $end
$var wire 1 |" \inst_BO|ALT_INV_val_vt\ [1] $end
$var wire 1 }" \inst_BO|ALT_INV_val_vt\ [0] $end
$var wire 1 ~" \inst_BC|ALT_INV_WideOr6~0_combout\ $end
$var wire 1 !# \inst_BC|ALT_INV_estado_atual.Libera_troco2~q\ $end
$var wire 1 "# \inst_BC|ALT_INV_estado_atual.Libera_troco1~q\ $end
$var wire 1 ## \inst_BC|ALT_INV_estado_atual.Libera_prod2~q\ $end
$var wire 1 $# \inst_BC|ALT_INV_estado_atual.Libera_prod1~q\ $end
$var wire 1 %# \inst_BC|ALT_INV_estado_atual.Libera_troco2~DUPLICATE_q\ $end
$var wire 1 &# \inst_BC|ALT_INV_estado_atual.Libera_prod1~DUPLICATE_q\ $end
$var wire 1 '# \ALT_INV_V[4]~input_o\ $end
$var wire 1 (# \ALT_INV_V[5]~input_o\ $end
$var wire 1 )# \ALT_INV_V[7]~input_o\ $end
$var wire 1 *# \ALT_INV_V[6]~input_o\ $end
$var wire 1 +# \ALT_INV_V[3]~input_o\ $end
$var wire 1 ,# \ALT_INV_V[2]~input_o\ $end
$upscope $end
$upscope $end
$enddefinitions $end
#0
$dumpvars
0!
0"
0#
0$
0%
0&
0'
0H
1I
xJ
1K
1L
1M
1N
1O
1P
0Q
0R
0S
0T
0m
0n
0o
xx
0y
0z
0{
0|
0}
1~
1!!
0"!
1#!
0$!
0%!
0&!
0'!
0(!
0)!
0*!
1+!
0,!
0-!
0.!
1/!
00!
01!
12!
13!
14!
15!
06!
07!
08!
09!
1:!
0;!
0<!
1=!
0>!
1?!
0@!
0A!
0B!
0C!
0D!
0E!
0F!
0G!
0H!
0I!
0J!
0K!
0L!
0M!
1N!
0O!
1P!
0Q!
0R!
1S!
0T!
0U!
0V!
0W!
0X!
1Y!
0Z!
0[!
1\!
0]!
0^!
1_!
0`!
0a!
0b!
0c!
0d!
0e!
0f!
1g!
0h!
0i!
0j!
0k!
0l!
0m!
0n!
0o!
1p!
0q!
0r!
0s!
0t!
0u!
0v!
1w!
0x!
0y!
1z!
0{!
1|!
1}!
1~!
1!"
0""
0#"
0$"
0%"
1&"
0'"
0("
1)"
1:"
0;"
1<"
0="
1>"
0?"
1@"
1A"
1B"
1C"
1D"
1E"
1F"
1G"
0H"
1I"
1J"
1K"
1L"
1M"
1N"
0O"
1P"
0Q"
1R"
0S"
1T"
1U"
1V"
0W"
1X"
1Y"
0Z"
1["
0\"
1]"
1f"
1g"
1h"
0i"
1j"
0k"
1l"
1m"
1n"
1o"
1p"
1q"
0r"
1s"
0t"
1u"
0~"
1!#
1"#
1##
1$#
1%#
1&#
0'#
1(#
1)#
1*#
0+#
1,#
0(
0)
1*
1+
0,
0-
1.
0/
00
01
02
03
04
05
06
07
08
09
0:
1;
1<
0=
0>
1?
0U
0V
0W
1X
1Y
0Z
0[
1\
0]
0^
1_
1`
0a
0b
1c
0d
0e
0f
0g
0h
0i
0j
0k
0l
0p
0q
0r
0s
0t
0u
0v
0w
0*"
0+"
0,"
0-"
0."
0/"
00"
01"
02"
03"
04"
05"
06"
07"
08"
09"
1^"
1_"
1`"
1a"
1b"
1c"
1d"
1e"
1v"
1w"
1x"
1y"
1z"
1{"
1|"
1}"
0@
0A
0B
0C
0D
0E
0F
0G
$end
#5000
1#
1Q
1y
1z
#10000
0#
1!
1&
0Q
1S
1R
18!
1{
0y
0z
0M"
0N"
1c!
04!
1;!
1U!
1]!
1^!
1n!
0p!
1#"
0}!
1%"
0~!
1Q"
0]"
0f"
0q"
0["
1$"
0!"
0%"
17!
05!
0_!
1q!
16!
0|!
1""
1\"
0#"
#15000
1#
1Q
1y
1z
1o!
1r!
0V"
0T"
1p!
0z!
1`!
1S"
0Q"
0q!
#20000
0#
0!
0&
0Q
0S
0R
08!
0{
0y
0z
1M"
1N"
0`!
1q!
0c!
14!
0;!
0U!
0]!
0^!
1#"
1%"
1]"
1f"
1q"
1["
07!
15!
1_!
06!
1|!
0\"
0#"
1}!
0%"
1~!
0$"
1!"
0""
#25000
1#
1Q
1y
1z
16"
15"
19"
0e"
0a"
0b"
0+!
1>!
16!
0Y!
1Z!
0?!
1@!
1Q!
1^!
1#"
0!!
1&!
1{!
1T!
1[!
0p"
0n"
0]"
0Y"
0j"
1k"
1'!
1A!
1?!
0S!
0_!
0\!
1i"
1\"
1W"
0q!
1s!
#30000
0#
1!
1&
0Q
1S
1R
18!
1{
0y
0z
0M"
0N"
1`!
0s!
1c!
04!
1;!
0Q!
0T!
1U!
1]!
0^!
0#"
1%"
0~!
1]"
0f"
0q"
1n"
1Y"
0["
1$"
0!"
17!
05!
1S!
06!
1""
0W"
#35000
1#
1Q
1y
1z
18"
06"
14"
1a!
0r!
09"
1e"
1V"
0R"
0`"
1b"
0d"
0'!
1(!
0c!
14!
1+!
0>!
16!
0|!
1Y!
0Z!
0A!
1F!
0]!
0%"
1~!
0p!
0`!
1!!
0&!
0{!
0[!
1p"
1Q"
1f"
1j"
0k"
1'!
0(!
0$"
1!"
1G!
1#"
0}!
0?!
07!
15!
1)!
1_!
1q!
1\!
06!
1|!
1%"
0~!
0""
0)!
0i"
0\"
1$"
0!"
0#"
1}!
0%"
1~!
1""
0$"
1!"
0""
#40000
0#
0!
0&
0Q
0S
0R
08!
0{
0y
0z
1M"
1N"
1c!
0;!
1Q!
1T!
0U!
1]!
1^!
1#"
1%"
0]"
0f"
1q"
0n"
0Y"
1["
0S!
0\!
0_!
1\"
1i"
1W"
#45000
1#
1Q
1y
1z
16"
05"
04"
13"
0a!
1r!
19"
0e"
0V"
1R"
0_"
1`"
1a"
0b"
0+!
1>!
16!
0Y!
1Z!
1?!
0@!
0Q!
0^!
0#"
1A!
0F!
0]!
0%"
0G!
1L!
0N!
1R!
1$"
1p!
1s!
0!!
1&!
1{!
1V!
1[!
0p"
0o"
0Q"
0X"
1Z"
1f"
1]"
1Y"
0j"
1k"
0'!
1(!
1M!
1G!
0L!
0A!
0?!
1@!
0q!
1A!
0M!
1)!
#50000
0#
1!
1&
0Q
1S
1R
18!
1{
0y
0z
0M"
0N"
1`!
0s!
0c!
1;!
0T!
1U!
1]!
1^!
1#"
0}!
1%"
0~!
0]"
0f"
0q"
1n"
0["
0$"
0%"
#55000
1#
1Q
1y
1z
08"
17"
06"
14"
1a!
0r!
09"
1e"
1V"
0R"
0`"
1b"
0c"
1d"
1'!
0(!
1c!
04!
0)!
1*!
17!
1+!
0>!
06!
0A!
1F!
0]!
1%"
0p!
0`!
1!!
0&!
0{!
0V!
0[!
1p"
1o"
1Q"
1f"
0'!
0G!
1L!
1?!
0@!
0+!
1>!
07!
1)!
0*!
1q!
1+!
0>!
0?!
1@!
1A!
0F!
1M!
1G!
0L!
0A!
1F!
1?!
0@!
1A!
0F!
0G!
1L!
0M!
1M!
1G!
0L!
0M!
#60000
0#
0!
0&
0Q
0S
0R
08!
0{
0y
0z
1M"
1N"
0c!
14!
0;!
0U!
1]!
0^!
0#"
1}!
0%"
1~!
1]"
0f"
1q"
1["
1$"
1%"
17!
#65000
1#
1Q
1y
1z
16"
15"
0a!
1r!
19"
0e"
0V"
1R"
0a"
0b"
0+!
1>!
16!
0?!
1@!
1Q!
1^!
1#"
1p!
1s!
0!!
1&!
1{!
1T!
1[!
0p"
0n"
0Q"
0]"
0Y"
1'!
0A!
1F!
1?!
0q!
0G!
1L!
1M!
#70000
0#
1!
1&
0Q
1S
1R
18!
1{
0y
0z
0M"
0N"
1`!
0s!
1c!
04!
1;!
0Q!
0T!
1U!
0]!
0^!
0#"
0%"
1]"
1f"
0q"
1n"
1Y"
0["
07!
#75000
1#
1Q
1y
1z
18"
06"
04"
03"
12"
1a!
0r!
09"
1e"
1V"
0R"
0^"
1_"
1`"
1b"
0d"
0'!
1(!
0c!
14!
1+!
0>!
06!
1A!
0F!
1]!
1%"
0~!
1G!
0L!
0$"
0M!
1""
0p!
0`!
1!!
0&!
0{!
0[!
1p"
1Q"
0f"
1'!
0(!
1M!
1$"
0!"
0G!
0?!
17!
0)!
1*!
1q!
0+!
1>!
0""
1)!
0*!
1+!
0>!
1?!
0?!
#80000
0#
0!
0&
0Q
0S
0R
08!
0{
0y
0z
1M"
1N"
1c!
0;!
1Q!
1T!
0U!
0]!
1^!
1#"
0%"
1~!
0]"
1f"
1q"
0n"
0Y"
1["
0$"
1!"
1""
#85000
1#
1Q
1y
1z
16"
05"
14"
0a!
1r!
19"
0e"
0V"
1R"
0`"
1a"
0b"
0+!
1>!
16!
1?!
0@!
0Q!
0^!
0#"
0A!
1F!
1]!
1%"
1p!
1s!
0!!
1&!
1{!
1V!
1[!
0p"
0o"
0Q"
0f"
1]"
1Y"
0'!
1(!
1G!
1A!
0F!
0?!
1@!
0q!
0A!
1F!
0G!
0)!
1*!
1+!
1G!
#90000
0#
1!
1&
0Q
1S
1R
18!
1{
0y
0z
0M"
0N"
1`!
0s!
0c!
1;!
0T!
1U!
0]!
1^!
1#"
0}!
0%"
0]"
1f"
0q"
1n"
0["
1%"
0~!
1$"
0!"
0""
#95000
1#
1Q
1y
1z
08"
07"
04"
13"
1a!
0r!
09"
1e"
1V"
0R"
0_"
1`"
1c"
1d"
1'!
0(!
1c!
04!
1)!
0*!
07!
1A!
0F!
1]!
0%"
0G!
1L!
0$"
1!"
0p!
0`!
1!!
0&!
0{!
0V!
0[!
1p"
1o"
1Q"
0f"
0'!
1""
0M!
1G!
0L!
0+!
17!
05!
0)!
1q!
06!
1M!
#100000
0#
0!
0&
0Q
0S
0R
08!
0{
0y
0z
1M"
1N"
0c!
14!
0;!
0U!
0]!
0^!
0#"
1}!
1%"
1]"
1f"
1q"
1["
0%"
1~!
07!
15!
16!
1$"
#105000
1#
1Q
1y
1z
06"
14"
0a!
1r!
19"
0e"
0V"
1R"
0`"
1b"
1+!
0>!
06!
1Y!
0Z!
0A!
1F!
1]!
1%"
1p!
1s!
0!!
1&!
1{!
1T!
1[!
0p"
0n"
0Q"
0f"
1j"
0k"
1'!
0G!
1L!
1?!
0@!
0q!
1A!
0F!
0M!
1G!
0L!
1M!
#110000
0#
1!
1&
0Q
1S
1R
18!
1{
0y
0z
0M"
0N"
1`!
0s!
1c!
04!
1;!
0T!
1U!
0]!
1^!
1#"
0}!
0%"
0]"
1f"
0q"
1n"
0["
1%"
0~!
17!
05!
1\!
16!
0|!
0$"
0i"
0#"
#115000
1#
1Q
1y
1z
18"
16"
15"
1a!
0r!
09"
1e"
1V"
0R"
0a"
0b"
0d"
0'!
1(!
0c!
14!
0+!
1>!
06!
1|!
0Y!
1Z!
0?!
1@!
0^!
1#"
0p!
0`!
1!!
0&!
0{!
0[!
1p"
1Q"
1]"
0j"
1k"
1'!
0(!
0A!
1F!
0#"
1}!
1?!
07!
15!
1)!
1q!
0\!
16!
0%"
1~!
0G!
1L!
0)!
1i"
0M!
1$"
#120000
0#
0!
0&
0Q
0S
0R
08!
0{
0y
0z
1M"
1N"
1c!
0;!
1Q!
1T!
0U!
1]!
1^!
1#"
1%"
0]"
0f"
1q"
0n"
0Y"
1["
#125000
1#
1Q
1y
1z
06"
04"
03"
02"
0a!
1r!
19"
0e"
0V"
1R"
1^"
1_"
1`"
1b"
1+!
0>!
06!
1Y!
0Z!
1A!
0F!
0]!
0%"
1G!
0L!
0$"
1M!
1N!
0R!
0""
1p!
1s!
0!!
1&!
1{!
1V!
1[!
0p"
0o"
0Q"
1X"
0Z"
1f"
1j"
0k"
0'!
1(!
0M!
0G!
0?!
0q!
1)!
#130000
0#
1!
1&
0Q
1S
1R
18!
1{
0y
0z
0M"
0N"
1`!
0s!
0c!
1;!
0Q!
0T!
1U!
1]!
0^!
0#"
1%"
0~!
1]"
0f"
0q"
1n"
1Y"
0["
1$"
0!"
1S!
1""
0W"
#135000
1#
1Q
1y
1z
08"
17"
16"
05"
14"
1a!
0r!
09"
1e"
1V"
0R"
0`"
1a"
0b"
0c"
1d"
1'!
0(!
1c!
04!
0)!
1*!
17!
0+!
1>!
16!
0Y!
1Z!
1?!
0@!
1^!
1#"
0}!
0A!
1F!
0]!
0%"
1~!
0p!
0`!
1!!
0&!
0{!
0V!
0[!
1p"
1o"
1Q"
1f"
0]"
0j"
1k"
0'!
0$"
1!"
1G!
1%"
0~!
1A!
0F!
0?!
1@!
1+!
07!
1)!
0*!
1q!
0+!
0A!
1F!
0G!
1$"
0!"
0""
1""
1G!
#140000
0#
0!
0&
0Q
0S
0R
08!
0{
0y
0z
1M"
1N"
0c!
14!
0;!
0U!
1]!
0^!
0#"
1}!
0%"
1~!
1]"
0f"
1q"
1["
0$"
1!"
1%"
17!
0S!
0""
1W"
#145000
1#
1Q
1y
1z
06"
04"
13"
0a!
1r!
19"
0e"
0V"
1R"
0_"
1`"
1b"
1+!
0>!
06!
1A!
0F!
1S!
0]!
0%"
0G!
1L!
0N!
1R!
1$"
1p!
1s!
0!!
1&!
1{!
1T!
1[!
0p"
0n"
0Q"
0X"
1Z"
1f"
0W"
1'!
1M!
1G!
0L!
1?!
0@!
0s!
0S!
0A!
0M!
1W"
0q!
1s!
#150000
0#
1!
1&
0Q
1S
1R
18!
1{
0y
0z
0M"
0N"
1`!
0s!
1c!
04!
1;!
0T!
1U!
1]!
1^!
1#"
0}!
1%"
0~!
0]"
0f"
0q"
1n"
0["
0$"
0%"
07!
#155000
1#
1Q
1y
1z
18"
16"
15"
1a!
0r!
09"
1e"
1V"
0R"
0a"
0b"
0d"
0'!
1(!
0c!
14!
0+!
1>!
16!
0?!
1@!
0^!
0#"
1}!
0p!
0`!
1!!
0&!
0{!
0[!
1p"
1Q"
1]"
1'!
0(!
1%"
1A!
1?!
17!
0)!
1*!
1q!
1+!
1)!
0*!
0+!
#160000
0#
0!
0&
0Q
0S
0R
08!
0{
0y
0z
1M"
1N"
1c!
0;!
1Q!
1T!
0U!
0]!
1^!
1#"
0%"
1~!
0]"
1f"
1q"
0n"
0Y"
1["
1$"
#165000
1#
1Q
1y
1z
06"
14"
0a!
1r!
19"
0e"
0V"
1R"
0`"
1b"
1+!
0>!
06!
0A!
1F!
1]!
1%"
1p!
1s!
0!!
1&!
1{!
1V!
1[!
0p"
0o"
0Q"
0f"
0'!
1(!
0G!
1L!
0?!
0q!
1M!
0)!
1*!
0+!
1>!
1?!
#170000
0#
1!
1&
0Q
1S
1R
18!
1{
0y
0z
0M"
0N"
1`!
0s!
0c!
1;!
0Q!
0T!
1U!
0]!
0^!
0#"
0%"
1]"
1f"
0q"
1n"
1Y"
0["
