projetos/proj01_phi_equipe0/simulation/qsim/proj01_phi_equipe0.msim.vcd
$comment
	File created using the following command:
		vcd file proj01_phi_equipe0.msim.vcd -direction
$end
$date
	Tue Sep 27 17:00:21 2022
$end
$version
	ModelSim Version 10.5b
$end
$timescale
	1ps
$end

$scope module main_vhd_vec_tst $end
$var wire 1 ! A [3] $end
$var wire 1 " A [2] $end
$var wire 1 # A [1] $end
$var wire 1 $ A [0] $end
$var wire 1 % B [3] $end
$var wire 1 & B [2] $end
$var wire 1 ' B [1] $end
$var wire 1 ( B [0] $end
$var wire 1 ) resultado [3] $end
$var wire 1 * resultado [2] $end
$var wire 1 + resultado [1] $end
$var wire 1 , resultado [0] $end
$var wire 1 - sel_op $end

$scope module i1 $end
$var wire 1 . gnd $end
$var wire 1 / vcc $end
$var wire 1 0 unknown $end
$var wire 1 1 devoe $end
$var wire 1 2 devclrn $end
$var wire 1 3 devpor $end
$var wire 1 4 ww_devoe $end
$var wire 1 5 ww_devclrn $end
$var wire 1 6 ww_devpor $end
$var wire 1 7 ww_A [3] $end
$var wire 1 8 ww_A [2] $end
$var wire 1 9 ww_A [1] $end
$var wire 1 : ww_A [0] $end
$var wire 1 ; ww_B [3] $end
$var wire 1 < ww_B [2] $end
$var wire 1 = ww_B [1] $end
$var wire 1 > ww_B [0] $end
$var wire 1 ? ww_sel_op $end
$var wire 1 @ ww_resultado [3] $end
$var wire 1 A ww_resultado [2] $end
$var wire 1 B ww_resultado [1] $end
$var wire 1 C ww_resultado [0] $end
$var wire 1 D \~QUARTUS_CREATED_GND~I_combout\ $end
$var wire 1 E \A[0]~input_o\ $end
$var wire 1 F \B[0]~input_o\ $end
$var wire 1 G \g1:0:inst_somador_de_1bit|s~0_combout\ $end
$var wire 1 H \B[1]~input_o\ $end
$var wire 1 I \sel_op~input_o\ $end
$var wire 1 J \A[1]~input_o\ $end
$var wire 1 K \g1:1:inst_somador_de_1bit|s~combout\ $end
$var wire 1 L \g1:1:inst_somador_de_1bit|cout~combout\ $end
$var wire 1 M \B[2]~input_o\ $end
$var wire 1 N \inst_seleciona_operacao|B[2]~0_combout\ $end
$var wire 1 O \A[2]~input_o\ $end
$var wire 1 P \g1:2:inst_somador_de_1bit|s~combout\ $end
$var wire 1 Q \B[3]~input_o\ $end
$var wire 1 R \inst_seleciona_operacao|B[3]~1_combout\ $end
$var wire 1 S \A[3]~input_o\ $end
$var wire 1 T \g1:3:inst_somador_de_1bit|s~combout\ $end
$var wire 1 U \g1:1:inst_somador_de_1bit|ALT_INV_cout~combout\ $end
$var wire 1 V \inst_seleciona_operacao|ALT_INV_B[2]~0_combout\ $end
$var wire 1 W \inst_seleciona_operacao|ALT_INV_B[3]~1_combout\ $end
$var wire 1 X \ALT_INV_A[3]~input_o\ $end
$var wire 1 Y \ALT_INV_B[3]~input_o\ $end
$var wire 1 Z \ALT_INV_A[0]~input_o\ $end
$var wire 1 [ \ALT_INV_B[0]~input_o\ $end
$var wire 1 \ \ALT_INV_A[1]~input_o\ $end
$var wire 1 ] \ALT_INV_B[1]~input_o\ $end
$var wire 1 ^ \ALT_INV_sel_op~input_o\ $end
$var wire 1 _ \ALT_INV_A[2]~input_o\ $end
$var wire 1 ` \ALT_INV_B[2]~input_o\ $end
$upscope $end
$upscope $end
$enddefinitions $end
#0
$dumpvars
0-
0.
1/
x0
11
12
13
14
15
16
0?
xD
0E
0F
0G
0H
0I
0J
0K
0L
0M
0N
0O
0P
0Q
0R
0S
0T
1U
1V
1W
1X
1Y
1Z
1[
1\
1]
1^
1_
1`
0!
0"
0#
0$
0%
0&
0'
0(
0)
0*
0+
0,
07
08
09
0:
0;
0<
0=
0>
0@
0A
0B
0C
$end
#5000
1$
1:
1E
0Z
1G
1C
1,
#10000
0$
1#
0:
19
1J
0E
1Z
0\
0G
1K
1B
0C
0,
1+
#15000
1$
1:
1E
0Z
1G
1C
1,
#20000
0$
0#
1"
1'
0:
09
18
1=
1H
1O
0J
0E
1Z
1\
0_
0]
1P
0G
0C
1A
0,
1*
#25000
1$
1:
1E
0Z
1G
1C
1,
#30000
0$
1#
0:
19
1J
0E
1Z
0\
0G
0K
1L
0U
0P
1T
0B
0C
0,
0+
1@
0A
0*
1)
#35000
1$
1:
1E
0Z
1G
1C
1,
#40000
0$
0#
0"
0'
1!
1-
0:
09
08
17
0=
1?
1I
0H
1S
0O
0J
0E
1Z
1\
1_
0X
1]
0^
1P
0G
0L
1U
0P
0C
1A
0,
1*
0A
0*
#45000
1$
1:
1E
0Z
1G
1C
1,
#50000
0$
1#
0:
19
1J
0E
1Z
0\
0G
1K
1B
0C
0,
1+
#55000
1$
1:
1E
0Z
1G
1C
1,
#60000
0$
0#
1"
1'
0:
09
18
1=
1H
1O
0J
0E
1Z
1\
0_
0]
1N
1R
1P
0G
0W
0V
0P
0C
1A
0,
1*
0A
0*
#65000
1$
1:
1E
0Z
1G
1C
1,
#70000
0$
1#
0:
19
1J
0E
1Z
0\
0G
0K
1L
0U
1P
0B
0C
0,
0+
1A
1*
#75000
1$
1:
1E
0Z
1G
1C
1,
#80000
0$
0#
0"
0'
0!
0-
0:
09
08
07
0=
0?
0I
0H
0S
0O
0J
0E
1Z
1\
1_
1X
1]
1^
0N
0R
0P
0T
0G
0L
1U
1W
1V
0C
0@
0A
0,
0*
0)
#85000
1$
1:
1E
0Z
1G
1C
1,
#90000
0$
1#
0:
19
1J
0E
1Z
0\
0G
1K
1B
0C
0,
1+
#95000
1$
1:
1E
0Z
1G
1C
1,
#100000
0$
0#
1"
1'
0:
09
18
1=
1H
1O
0J
0E
1Z
1\
0_
0]
1P
0G
0C
1A
0,
1*
#105000
1$
1:
1E
0Z
1G
1C
1,
#110000
0$
1#
0:
19
1J
0E
1Z
0\
0G
0K
1L
0U
0P
1T
0B
0C
0,
0+
1@
0A
0*
1)
#115000
1$
1:
1E
0Z
1G
1C
1,
#120000
0$
0#
0"
0'
1!
1-
0:
09
08
17
0=
1?
1I
0H
1S
0O
0J
0E
1Z
1\
1_
0X
1]
0^
1P
0G
0L
1U
0P
0C
1A
0,
1*
0A
0*
#125000
1$
1:
1E
0Z
1G
1C
1,
#130000
0$
1#
0:
19
1J
0E
1Z
0\
0G
1K
1B
0C
0,
1+
#135000
1$
1:
1E
0Z
1G
1C
1,
#140000
0$
0#
1"
1'
0:
09
18
1=
1H
1O
0J
0E
1Z
1\
0_
0]
1N
1R
1P
0G
0W
0V
0P
0C
1A
0,
1*
0A
0*
#145000
1$
1:
1E
0Z
1G
1C
1,
#150000
0$
1#
0:
19
1J
0E
1Z
0\
0G
0K
1L
0U
1P
0B
0C
0,
0+
1A
1*
#155000
1$
1:
1E
0Z
1G
1C
1,
#160000
0$
0#
0"
0'
0!
0-
0:
09
08
07
0=
0?
0I
0H
0S
0O
0J
0E
1Z
1\
1_
1X
1]
1^
0N
0R
0P
0T
0G
0L
1U
1W
1V
0C
0@
0A
0,
0*
0)
#165000
1$
1:
1E
0Z
1G
1C
1,
#170000
0$
1#
0:
19
1J
0E
1Z
0\
0G
1K
1B
0C
0,
1+
#175000
1$
1:
1E
0Z
1G
1C
1,
#180000
0$
0#
1"
1'
0:
09
18
1=
1H
1O
0J
0E
1Z
1\
0_
0]
1P
0G
0C
1A
0,
1*
#185000
1$
1:
1E
0Z
1G
1C
1,
#190000
0$
1#
0:
19
1J
0E
1Z
0\
0G
0K
1L
0U
0P
1T
0B
0C
0,
0+
1@
0A
0*
1)
#195000
1$
1:
1E
0Z
1G
1C
1,
#200000
0$
0#
0"
0'
1!
1-
0:
09
08
17
0=
1?
1I
0H
1S
0O
0J
0E
1Z
1\
1_
0X
1]
0^
1P
0G
0L
1U
0P
0C
1A
0,
1*
0A
0*
#205000
1$
1:
1E
0Z
1G
1C
1,
#210000
0$
1#
0:
19
1J
0E
1Z
0\
0G
1K
1B
0C
0,
1+
#215000
1$
1:
1E
0Z
1G
1C
1,
#220000
0$
0#
1"
1'
0:
09
18
1=
1H
1O
0J
0E
1Z
1\
0_
0]
1N
1R
1P
0G
0W
0V
0P
0C
1A
0,
1*
0A
0*
#225000
1$
1:
1E
0Z
1G
1C
1,
#230000
0$
1#
0:
19
1J
0E
1Z
0\
0G
0K
1L
0U
1P
0B
0C
0,
0+
1A
1*
#235000
1$
1:
1E
0Z
1G
1C
1,
#240000
0$
0#
0"
0'
0!
0-
0:
09
08
07
0=
0?
0I
0H
0S
0O
0J
0E
1Z
1\
1_
1X
1]
1^
0N
0R
0P
0T
0G
0L
1U
1W
1V
0C
0@
0A
0,
0*
0)
#245000
1$
1:
1E
0Z
1G
1C
1,
#250000
0$
1#
0:
19
1J
0E
1Z
0\
0G
1K
1B
0C
0,
1+
#255000
1$
1:
1E
0Z
1G
1C
1,
#260000
0$
0#
1"
1'
0:
09
18
1=
1H
1O
0J
0E
1Z
1\
0_
0]
1P
0G
0C
1A
0,
1*
#265000
1$
1:
1E
0Z
1G
1C
1,
#270000
0$
1#
0:
19
1J
0E
1Z
0\
0G
0K
1L
0U
0P
1T
0B
0C
0,
0+
1@
0A
0*
1)
#275000
1$
1:
1E
0Z
1G
1C
1,
#280000
0$
0#
0"
0'
1!
1-
0:
09
08
17
0=
1?
1I
0H
1S
0O
0J
0E
1Z
1\
1_
0X
1]
0^
1P
0G
0L
1U
0P
0C
1A
0,
1*
0A
0*
#285000
1$
1:
1E
0Z
1G
1C
1,
#290000
0$
1#
0:
19
1J
0E
1Z
0\
0G
1K
1B
0C
0,
1+
#295000
1$
1:
1E
0Z
1G
1C
1,
#300000
0$
0#
1"
1'
0:
09
18
1=
1H
1O
0J
0E
1Z
1\
0_
0]
1N
1R
1P
0G
0W
0V
0P
0C
1A
0,
1*
0A
0*
#305000
1$
1:
1E
0Z
1G
1C
1,
#310000
0$
1#
0:
19
1J
0E
1Z
0\
0G
0K
1L
0U
1P
0B
0C
0,
0+
1A
1*
#315000
1$
1:
1E
0Z
1G
1C
1,
#320000
0$
0#
0"
0'
0!
0-
0:
09
08
07
0=
0?
0I
0H
0S
0O
0J
0E
1Z
1\
1_
1X
1]
1^
0N
0R
0P
0T
0G
0L
1U
1W
1V
0C
0@
0A
0,
0*
0)
#325000
1$
1:
1E
0Z
1G
1C
1,
#330000
0$
1#
0:
19
1J
0E
1Z
0\
0G
1K
1B
0C
0,
1+
#335000
1$
1:
1E
0Z
1G
1C
1,
#340000
0$
0#
1"
1'
0:
09
18
1=
1H
1O
0J
0E
1Z
1\
0_
0]
1P
0G
0C
1A
0,
1*
#345000
1$
1:
1E
0Z
1G
1C
1,
#350000
0$
1#
0:
19
1J
0E
1Z
0\
0G
0K
1L
0U
0P
1T
0B
0C
0,
0+
1@
0A
0*
1)
#355000
1$
1:
1E
0Z
1G
1C
1,
#360000
0$
0#
0"
0'
1!
1-
0:
09
08
17
0=
1?
1I
0H
1S
0O
0J
0E
1Z
1\
1_
0X
1]
0^
1P
0G
0L
1U
0P
0C
1A
0,
1*
0A
0*
#365000
1$
1:
1E
0Z
1G
1C
1,
#370000
0$
1#
0:
19
1J
0E
1Z
0\
0G
1K
1B
0C
0,
1+
#375000
1$
1:
1E
0Z
1G
1C
1,
#380000
0$
0#
1"
1'
0:
09
18
1=
1H
1O
0J
0E
1Z
1\
0_
0]
1N
1R
1P
0G
0W
0V
0P
0C
1A
0,
1*
0A
0*
#385000
1$
1:
1E
0Z
1G
1C
1,
#390000
0$
1#
0:
19
1J
0E
1Z
0\
0G
0K
1L
0U
1P
0B
0C
0,
0+
1A
1*
#395000
1$
1:
1E
0Z
1G
1C
1,
#400000
0$
0#
0"
0'
0!
0-
0:
09
08
07
0=
0?
0I
0H
0S
0O
0J
0E
1Z
1\
1_
1X
1]
1^
0N
0R
0P
0T
0G
0L
1U
1W
1V
0C
0@
0A
0,
0*
0)
#405000
1$
1:
1E
0Z
1G
1C
1,
#410000
0$
1#
0:
19
1J
0E
1Z
0\
0G
1K
1B
0C
0,
1+
#415000
1$
1:
1E
0Z
1G
1C
1,
#420000
0$
0#
1"
1'
0:
09
18
1=
1H
1O
0J
0E
1Z
1\
0_
0]
1P
0G
0C
1A
0,
1*
#425000
1$
1:
1E
0Z
1G
1C
1,
#430000
0$
1#
0:
19
1J
0E
1Z
0\
0G
0K
1L
0U
0P
1T
0B
0C
0,
0+
1@
0A
0*
1)
#435000
1$
1:
1E
0Z
1G
1C
1,
#440000
0$
0#
0"
0'
1!
1-
0:
09
08
17
0=
1?
1I
0H
1S
0O
0J
0E
1Z
1\
1_
0X
1]
0^
1P
0G
0L
1U
0P
0C
1A
0,
1*
0A
0*
#445000
1$
1:
1E
0Z
1G
1C
1,
#450000
0$
1#
0:
19
1J
0E
1Z
0\
0G
1K
1B
0C
0,
1+
#455000
1$
1:
1E
0Z
1G
1C
1,
#460000
0$
0#
1"
1'
0:
09
18
1=
1H
1O
0J
0E
1Z
1\
0_
0]
1N
1R
1P
0G
0W
0V
0P
0C
1A
0,
1*
0A
0*
#465000
1$
1:
1E
0Z
1G
1C
1,
#470000
0$
1#
0:
19
1J
0E
1Z
0\
0G
0K
1L
0U
1P
0B
0C
0,
0+
1A
1*
#475000
1$
1:
1E
0Z
1G
1C
1,
#480000
0$
0#
0"
0'
0!
0-
0:
09
08
07
0=
0?
0I
0H
0S
0O
0J
0E
1Z
1\
1_
1X
1]
1^
0N
0R
0P
0T
0G
0L
1U
1W
1V
0C
0@
0A
0,
0*
0)
#485000
1$
1:
1E
0Z
1G
1C
1,
#490000
0$
1#
0:
19
1J
0E
1Z
0\
0G
1K
1B
0C
0,
1+
#495000
1$
1:
1E
0Z
1G
1C
1,
#500000
0$
0#
1"
1'
0:
09
18
1=
1H
1O
0J
0E
1Z
1\
0_
0]
1P
0G
0C
1A
0,
1*
#505000
1$
1:
1E
0Z
1G
1C
1,
#510000
0$
1#
0:
19
1J
0E
1Z
0\
0G
0K
1L
0U
0P
1T
0B
0C
0,
0+
1@
0A
0*
1)
#515000
1$
1:
1E
0Z
1G
1C
1,
#520000
0$
0#
0"
0'
1!
1-
0:
09
08
17
0=
1?
1I
0H
1S
0O
0J
0E
1Z
1\
1_
0X
1]
0^
1P
0G
0L
1U
0P
0C
1A
0,
1*
0A
0*
#525000
1$
1:
1E
0Z
1G
1C
1,
#530000
0$
1#
0:
19
1J
0E
1Z
0\
0G
1K
1B
0C
0,
1+
#535000
1$
1:
1E
0Z
1G
1C
1,
#540000
0$
0#
1"
1'
0:
09
18
1=
1H
1O
0J
0E
1Z
1\
0_
0]
1N
1R
1P
0G
0W
0V
0P
0C
1A
0,
1*
0A
0*
#545000
1$
1:
1E
0Z
1G
1C
1,
#550000
0$
1#
0:
19
1J
0E
1Z
0\
0G
0K
1L
0U
1P
0B
0C
0,
0+
1A
1*
#555000
1$
1:
1E
0Z
1G
1C
1,
#560000
0$
0#
0"
0'
0!
0-
0:
09
08
07
0=
0?
0I
0H
0S
0O
0J
0E
1Z
1\
1_
1X
1]
1^
0N
0R
0P
0T
0G
0L
1U
1W
1V
0C
0@
0A
0,
0*
0)
#565000
1$
1:
1E
0Z
1G
1C
1,
#570000
0$
1#
0:
19
1J
0E
1Z
0\
0G
1K
1B
0C
0,
1+
#575000
1$
1:
1E
0Z
1G
1C
1,
#580000
0$
0#
1"
1'
0:
09
18
1=
1H
1O
0J
0E
1Z
1\
0_
0]
1P
0G
0C
1A
0,
1*
#585000
1$
1:
1E
0Z
1G
1C
1,
#590000
0$
1#
0:
19
1J
0E
1Z
0\
0G
0K
1L
0U
0P
1T
0B
0C
0,
0+
1@
0A
0*
1)
#595000
1$
1:
1E
0Z
1G
1C
1,
#600000
0$
0#
0"
0'
1!
1-
0:
09
08
17
0=
1?
1I
0H
1S
0O
0J
0E
1Z
1\
1_
0X
1]
0^
1P
0G
0L
1U
0P
0C
1A
0,
1*
0A
0*
#605000
1$
1:
1E
0Z
1G
1C
1,
#610000
0$
1#
0:
19
1J
0E
1Z
0\
0G
1K
1B
0C
0,
1+
#615000
1$
1:
1E
0Z
1G
1C
1,
#620000
0$
0#
1"
1'
0:
09
18
1=
1H
1O
0J
0E
1Z
1\
0_
0]
1N
1R
1P
0G
0W
0V
0P
0C
1A
0,
1*
0A
0*
#625000
1$
1:
1E
0Z
1G
1C
1,
#630000
0$
1#
0:
19
1J
0E
1Z
0\
0G
0K
1L
0U
1P
0B
0C
0,
0+
1A
1*
#635000
1$
1:
1E
0Z
1G
1C
1,
#640000
0$
0#
0"
0'
0!
0-
0:
09
08
07
0=
0?
0I
0H
0S
0O
0J
0E
1Z
1\
1_
1X
1]
1^
0N
0R
0P
0T
0G
0L
1U
1W
1V
0C
0@
0A
0,
0*
0)
#645000
1$
1:
1E
0Z
1G
1C
1,
#650000
0$
1#
0:
19
1J
0E
1Z
0\
0G
1K
1B
0C
0,
1+
#655000
1$
1:
1E
0Z
1G
1C
1,
#660000
0$
0#
1"
1'
0:
09
18
1=
1H
1O
0J
0E
1Z
1\
0_
0]
1P
0G
0C
1A
0,
1*
#665000
1$
1:
1E
0Z
1G
1C
1,
#670000
0$
1#
0:
19
1J
0E
1Z
0\
0G
0K
1L
0U
0P
1T
0B
0C
0,
0+
1@
0A
0*
1)
#675000
1$
1:
1E
0Z
1G
1C
1,
#680000
0$
0#
0"
0'
1!
1-
0:
09
08
17
0=
1?
1I
0H
1S
0O
0J
0E
1Z
1\
1_
0X
1]
0^
1P
0G
0L
1U
0P
0C
1A
0,
1*
0A
0*
#685000
1$
1:
1E
0Z
1G
1C
1,
#690000
0$
1#
0:
19
1J
0E
1Z
0\
0G
1K
1B
0C
0,
1+
#695000
1$
1:
1E
0Z
1G
1C
1,
#700000
0$
0#
1"
1'
0:
09
18
1=
1H
1O
0J
0E
1Z
1\
0_
0]
1N
1R
1P
0G
0W
0V
0P
0C
1A
0,
1*
0A
0*
#705000
1$
1:
1E
0Z
1G
1C
1,
#710000
0$
1#
0:
19
1J
0E
1Z
0\
0G
0K
1L
0U
1P
0B
0C
0,
0+
1A
1*
#715000
1$
1:
1E
0Z
1G
1C
1,
#720000
0$
0#
0"
0'
0!
0-
0:
09
08
07
0=
0?
0I
0H
0S
0O
0J
0E
1Z
1\
1_
1X
1]
1^
0N
0R
0P
0T
0G
0L
1U
1W
1V
0C
0@
0A
0,
0*
0)
#725000
1$
1:
1E
0Z
1G
1C
1,
#730000
0$
1#
0:
19
1J
0E
1Z
0\
0G
1K
1B
0C
0,
1+
#735000
1$
1:
1E
0Z
1G
1C
1,
#740000
0$
0#
1"
1'
0:
09
18
1=
1H
1O
0J
0E
1Z
1\
0_
0]
1P
0G
0C
1A
0,
1*
#745000
1$
1:
1E
0Z
1G
1C
1,
#750000
0$
1#
0:
19
1J
0E
1Z
0\
0G
0K
1L
0U
0P
1T
0B
0C
0,
0+
1@
0A
0*
1)
#755000
1$
1:
1E
0Z
1G
1C
1,
#760000
0$
0#
0"
0'
1!
1-
0:
09
08
17
0=
1?
1I
0H
1S
0O
0J
0E
1Z
1\
1_
0X
1]
0^
1P
0G
0L
1U
0P
0C
1A
0,
1*
0A
0*
#765000
1$
1:
1E
0Z
1G
1C
1,
#770000
0$
1#
0:
19
1J
0E
1Z
0\
0G
1K
1B
0C
0,
1+
#775000
1$
1:
1E
0Z
1G
1C
1,
#780000
0$
0#
1"
1'
0:
09
18
1=
1H
1O
0J
0E
1Z
1\
0_
0]
1N
1R
1P
0G
0W
0V
0P
0C
1A
0,
1*
0A
0*
#785000
1$
1:
1E
0Z
1G
1C
1,
#790000
0$
1#
0:
19
1J
0E
1Z
0\
0G
0K
1L
0U
1P
0B
0C
0,
0+
1A
1*
#795000
1$
1:
1E
0Z
1G
1C
1,
#800000
0$
0#
0"
0'
0!
0-
0:
09
08
07
0=
0?
0I
0H
0S
0O
0J
0E
1Z
1\
1_
1X
1]
1^
0N
0R
0P
0T
0G
0L
1U
1W
1V
0C
0@
0A
0,
0*
0)
#805000
1$
1:
1E
0Z
1G
1C
1,
#810000
0$
1#
0:
19
1J
0E
1Z
0\
0G
1K
1B
0C
0,
1+
#815000
1$
1:
1E
0Z
1G
1C
1,
#820000
0$
0#
1"
1'
0:
09
18
1=
1H
1O
0J
0E
1Z
1\
0_
0]
1P
0G
0C
1A
0,
1*
#825000
1$
1:
1E
0Z
1G
1C
1,
#830000
0$
1#
0:
19
1J
0E
1Z
0\
0G
0K
1L
0U
0P
1T
0B
0C
0,
0+
1@
0A
0*
1)
#835000
1$
1:
1E
0Z
1G
1C
1,
#840000
0$
0#
0"
0'
1!
1-
0:
09
08
17
0=
1?
1I
0H
1S
0O
0J
0E
1Z
1\
1_
0X
1]
0^
1P
0G
0L
1U
0P
0C
1A
0,
1*
0A
0*
#845000
1$
1:
1E
0Z
1G
1C
1,
#850000
0$
1#
0:
19
1J
0E
1Z
0\
0G
1K
1B
0C
0,
1+
#855000
1$
1:
1E
0Z
1G
1C
1,
#860000
0$
0#
1"
1'
0:
09
18
1=
1H
1O
0J
0E
1Z
1\
0_
0]
1N
1R
1P
0G
0W
0V
0P
0C
1A
0,
1*
0A
0*
#865000
1$
1:
1E
0Z
1G
1C
1,
#870000
0$
1#
0:
19
1J
0E
1Z
0\
0G
0K
1L
0U
1P
0B
0C
0,
0+
1A
1*
#875000
1$
1:
1E
0Z
1G
1C
1,
#880000
0$
0#
0"
0'
0!
0-
0:
09
08
07
0=
0?
0I
0H
0S
0O
0J
0E
1Z
1\
1_
1X
1]
1^
0N
0R
0P
0T
0G
0L
1U
1W
1V
0C
0@
0A
0,
0*
0)
#885000
1$
1:
1E
0Z
1G
1C
1,
#890000
0$
1#
0:
19
1J
0E
1Z
0\
0G
1K
1B
0C
0,
1+
#895000
1$
1:
1E
0Z
1G
1C
1,
#900000
0$
0#
1"
1'
0:
09
18
1=
1H
1O
0J
0E
1Z
1\
0_
0]
1P
0G
0C
1A
0,
1*
#905000
1$
1:
1E
0Z
1G
1C
1,
#910000
0$
1#
0:
19
1J
0E
1Z
0\
0G
0K
1L
0U
0P
1T
0B
0C
0,
0+
1@
0A
0*
1)
#915000
1$
1:
1E
0Z
1G
1C
1,
#920000
0$
0#
0"
0'
1!
1-
0:
09
08
17
0=
1?
1I
0H
1S
0O
0J
0E
1Z
1\
1_
0X
1]
0^
1P
0G
0L
1U
0P
0C
1A
0,
1*
0A
0*
#925000
1$
1:
1E
0Z
1G
1C
1,
#930000
0$
1#
0:
19
1J
0E
1Z
0\
0G
1K
1B
0C
0,
1+
#935000
1$
1:
1E
0Z
1G
1C
1,
#940000
0$
0#
1"
1'
0:
09
18
1=
1H
1O
0J
0E
1Z
1\
0_
0]
1N
1R
1P
0G
0W
0V
0P
0C
1A
0,
1*
0A
0*
#945000
1$
1:
1E
0Z
1G
1C
1,
#950000
0$
1#
0:
19
1J
0E
1Z
0\
0G
0K
1L
0U
1P
0B
0C
0,
0+
1A
1*
#955000
1$
1:
1E
0Z
1G
1C
1,
#960000
0$
0#
0"
0'
0!
0-
0:
09
08
07
0=
0?
0I
0H
0S
0O
0J
0E
1Z
1\
1_
1X
1]
1^
0N
0R
0P
0T
0G
0L
1U
1W
1V
0C
0@
0A
0,
0*
0)
#965000
1$
1:
1E
0Z
1G
1C
1,
#970000
0$
1#
0:
19
1J
0E
1Z
0\
0G
1K
1B
0C
0,
1+
#975000
1$
1:
1E
0Z
1G
1C
1,
#980000
0$
0#
1"
1'
0:
09
18
1=
1H
1O
0J
0E
1Z
1\
0_
0]
1P
0G
0C
1A
0,
1*
#985000
1$
1:
1E
0Z
1G
1C
1,
#990000
0$
1#
0:
19
1J
0E
1Z
0\
0G
0K
1L
0U
0P
1T
0B
0C
0,
0+
1@
0A
0*
1)
#995000
1$
1:
1E
0Z
1G
1C
1,
